PCBNEW-LibModule-V1  
# encoding utf-8
Units mm
$INDEX
HRS_U.FL-R-SMT-1(10)
$EndINDEX
$MODULE HRS_U.FL-R-SMT-1(10)
Po 0 0 0 15 00000000 00000000 ~~
Li HRS_U.FL-R-SMT-1(10)
Cd 
Sc 00000000
At SMD
Op 0 0 0
.SolderMask 0
.SolderPaste 0
T0 -0.56892 -2.3117 0.801283 0.801283 0 0.05 N V 21 "HRS_U.FL-R-SMT-1(10)"
T1 -0.06015 3.09926 0.801874 0.801874 0 0.05 N V 21 "VAL**"
DC 0 0 1 0 0.127 27
DC 0 0 0.3 0 0 27
DS -2.25 -1.55 2.25 -1.55 0.05 26
DS 2.25 -1.55 2.25 2.3 0.05 26
DS 2.25 2.3 -2.25 2.3 0.05 26
DS -2.25 2.3 -2.25 -1.55 0.05 26
DS -1.3 -1.3 1.3 -1.3 0.127 27
DS 1.3 -1.3 1.3 1.3 0.127 27
DS 1.3 1.3 -1.3 1.3 0.127 27
DS -1.3 1.3 -1.3 -1.3 0.127 27
DS -1.3 -1.3 1.3 -1.3 0.127 21
DP 0 0 0 0 4 0 24
Dl -0.950158 -1.1
Dl 0.95 -1.1
Dl 0.95 1.00017
Dl -0.950158 1.00017
DS -1.3 1.3 -0.67 1.3 0.127 21
DS 1.3 1.3 0.67 1.3 0.127 21
$PAD
Sh "2" R 1 1.05 0 0 0
At SMD N 00888000
.SolderMask 0
.SolderPaste 0
Ne 0 ""
Po 0 1.525
$EndPAD
$PAD
Sh "1" R 1.05 2.2 0 0 0
At SMD N 00888000
.SolderMask 0
.SolderPaste 0
Ne 0 ""
Po -1.475 0
$EndPAD
$PAD
Sh "3" R 1.05 2.2 0 0 0
At SMD N 00888000
.SolderMask 0
.SolderPaste 0
Ne 0 ""
Po 1.475 0
$EndPAD
$EndMODULE HRS_U.FL-R-SMT-1(10)
