<?xml version="1.0" encoding="utf-8"?>
<!--/559994/109501/2.36/25/4/Integrated Circuit/-->
<!DOCTYPE curve SYSTEM "eagle.dtd">
<eagle version="7.7.0">
<drawing>
<settings>
<setting alwaysvectorfont="no"/>
<setting verticaltext="up"/>
</settings>
<grid distance="0.1" unitdist="inch" unit="inch" style="lines" multiple="1" display="no" altdistance="0.01" altunitdist="inch" altunit="inch"/>
<layers>
<layer number="1" name="Top" color="4" fill="1" visible="yes" active="yes"/>
<layer number="16" name="Bottom" color="1" fill="1" visible="yes" active="yes"/>
<layer number="17" name="Pads" color="2" fill="1" visible="yes" active="yes"/>
<layer number="18" name="Vias" color="2" fill="1" visible="yes" active="yes"/>
<layer number="19" name="Unrouted" color="6" fill="1" visible="yes" active="yes"/>
<layer number="20" name="Dimension" color="15" fill="1" visible="yes" active="yes"/>
<layer number="21" name="tPlace" color="7" fill="1" visible="yes" active="yes"/>
<layer number="22" name="bPlace" color="7" fill="1" visible="yes" active="yes"/>
<layer number="23" name="tOrigins" color="15" fill="1" visible="yes" active="yes"/>
<layer number="24" name="bOrigins" color="15" fill="1" visible="yes" active="yes"/>
<layer number="25" name="tNames" color="7" fill="1" visible="yes" active="yes"/>
<layer number="26" name="bNames" color="7" fill="1" visible="yes" active="yes"/>
<layer number="27" name="tValues" color="7" fill="1" visible="yes" active="yes"/>
<layer number="28" name="bValues" color="7" fill="1" visible="yes" active="yes"/>
<layer number="29" name="tStop" color="7" fill="3" visible="no" active="yes"/>
<layer number="30" name="bStop" color="7" fill="6" visible="no" active="yes"/>
<layer number="31" name="tCream" color="7" fill="4" visible="no" active="yes"/>
<layer number="32" name="bCream" color="7" fill="5" visible="no" active="yes"/>
<layer number="33" name="tFinish" color="6" fill="3" visible="no" active="yes"/>
<layer number="34" name="bFinish" color="6" fill="6" visible="no" active="yes"/>
<layer number="35" name="tGlue" color="7" fill="4" visible="no" active="yes"/>
<layer number="36" name="bGlue" color="7" fill="5" visible="no" active="yes"/>
<layer number="37" name="tTest" color="7" fill="1" visible="no" active="yes"/>
<layer number="38" name="bTest" color="7" fill="1" visible="no" active="yes"/>
<layer number="39" name="tKeepout" color="4" fill="11" visible="yes" active="yes"/>
<layer number="40" name="bKeepout" color="1" fill="11" visible="yes" active="yes"/>
<layer number="41" name="tRestrict" color="4" fill="10" visible="yes" active="yes"/>
<layer number="42" name="bRestrict" color="1" fill="10" visible="yes" active="yes"/>
<layer number="43" name="vRestrict" color="2" fill="10" visible="yes" active="yes"/>
<layer number="44" name="Drills" color="7" fill="1" visible="no" active="yes"/>
<layer number="45" name="Holes" color="7" fill="1" visible="no" active="yes"/>
<layer number="46" name="Milling" color="3" fill="1" visible="no" active="yes"/>
<layer number="47" name="Measures" color="7" fill="1" visible="no" active="yes"/>
<layer number="48" name="Document" color="7" fill="1" visible="yes" active="yes"/>
<layer number="49" name="Reference" color="7" fill="1" visible="yes" active="yes"/>
<layer number="51" name="tDocu" color="7" fill="1" visible="yes" active="yes"/>
<layer number="52" name="bDocu" color="7" fill="1" visible="yes" active="yes"/>
<layer number="90" name="Modules" color="5" fill="1" visible="yes" active="yes"/>
<layer number="91" name="Nets" color="2" fill="1" visible="yes" active="yes"/>
<layer number="92" name="Busses" color="1" fill="1" visible="yes" active="yes"/>
<layer number="93" name="Pins" color="2" fill="1" visible="no" active="yes"/>
<layer number="94" name="Symbols" color="4" fill="1" visible="yes" active="yes"/>
<layer number="95" name="Names" color="7" fill="1" visible="yes" active="yes"/>
<layer number="96" name="Values" color="7" fill="1" visible="yes" active="yes"/>
<layer number="97" name="Info" color="7" fill="1" visible="yes" active="yes"/>
<layer number="98" name="Guide" color="6" fill="1" visible="yes" active="yes"/>
</layers>
<library>
<description>&lt;8-bit Microcontrollers - MCU AVR 8-bit Microcontroller&lt;/b&gt;&lt;p&gt;
&lt;author&gt;Created by SamacSys&lt;/author&gt;</description>
<packages>
<package name="QFN50P400X400X90-25N">
<description>&lt;b&gt;QFN_4x4_24L&lt;/b&gt;&lt;br&gt;
</description>
<smd name="1" x="-1.95" y="1.25" dx="0.85" dy="0.3" layer="1" rot="R0"/>
<smd name="2" x="-1.95" y="0.75" dx="0.85" dy="0.3" layer="1" rot="R0"/>
<smd name="3" x="-1.95" y="0.25" dx="0.85" dy="0.3" layer="1" rot="R0"/>
<smd name="4" x="-1.95" y="-0.25" dx="0.85" dy="0.3" layer="1" rot="R0"/>
<smd name="5" x="-1.95" y="-0.75" dx="0.85" dy="0.3" layer="1" rot="R0"/>
<smd name="6" x="-1.95" y="-1.25" dx="0.85" dy="0.3" layer="1" rot="R0"/>
<smd name="7" x="-1.25" y="-1.95" dx="0.85" dy="0.3" layer="1" rot="R90"/>
<smd name="8" x="-0.75" y="-1.95" dx="0.85" dy="0.3" layer="1" rot="R90"/>
<smd name="9" x="-0.25" y="-1.95" dx="0.85" dy="0.3" layer="1" rot="R90"/>
<smd name="10" x="0.25" y="-1.95" dx="0.85" dy="0.3" layer="1" rot="R90"/>
<smd name="11" x="0.75" y="-1.95" dx="0.85" dy="0.3" layer="1" rot="R90"/>
<smd name="12" x="1.25" y="-1.95" dx="0.85" dy="0.3" layer="1" rot="R90"/>
<smd name="13" x="1.95" y="-1.25" dx="0.85" dy="0.3" layer="1" rot="R0"/>
<smd name="14" x="1.95" y="-0.75" dx="0.85" dy="0.3" layer="1" rot="R0"/>
<smd name="15" x="1.95" y="-0.25" dx="0.85" dy="0.3" layer="1" rot="R0"/>
<smd name="16" x="1.95" y="0.25" dx="0.85" dy="0.3" layer="1" rot="R0"/>
<smd name="17" x="1.95" y="0.75" dx="0.85" dy="0.3" layer="1" rot="R0"/>
<smd name="18" x="1.95" y="1.25" dx="0.85" dy="0.3" layer="1" rot="R0"/>
<smd name="19" x="1.25" y="1.95" dx="0.85" dy="0.3" layer="1" rot="R90"/>
<smd name="20" x="0.75" y="1.95" dx="0.85" dy="0.3" layer="1" rot="R90"/>
<smd name="21" x="0.25" y="1.95" dx="0.85" dy="0.3" layer="1" rot="R90"/>
<smd name="22" x="-0.25" y="1.95" dx="0.85" dy="0.3" layer="1" rot="R90"/>
<smd name="23" x="-0.75" y="1.95" dx="0.85" dy="0.3" layer="1" rot="R90"/>
<smd name="24" x="-1.25" y="1.95" dx="0.85" dy="0.3" layer="1" rot="R90"/>
<smd name="25" x="0" y="0" dx="2.7" dy="2.7" layer="1" rot="R90"/>
<text x="0" y="0" align="center" size="1.27" layer="25" rot="R0" >&gt;NAME</text>
<text x="0" y="0" align="center" size="1.27" layer="27" rot="R0" >&gt;VALUE</text>
<wire x1="-2.625" y1="2.625" x2="2.625" y2="2.625" width="0.05" layer="51"/>
<wire x1="2.625" y1="2.625" x2="2.625" y2="-2.625" width="0.05" layer="51"/>
<wire x1="2.625" y1="-2.625" x2="-2.625" y2="-2.625" width="0.05" layer="51"/>
<wire x1="-2.625" y1="-2.625" x2="-2.625" y2="2.625" width="0.05" layer="51"/>
<wire x1="-2" y1="2" x2="2" y2="2" width="0.1" layer="51"/>
<wire x1="2" y1="2" x2="2" y2="-2" width="0.1" layer="51"/>
<wire x1="2" y1="-2" x2="-2" y2="-2" width="0.1" layer="51"/>
<wire x1="-2" y1="-2" x2="-2" y2="2" width="0.1" layer="51"/>
<wire x1="-2" y1="1.5" x2="-1.5" y2="2" width="0.1" layer="51"/>
<circle x="-2.375" y="2" radius="0.125" width="0.25" layer="25"/>
</package>
</packages>
<symbols>
<symbol name="ATTINY817-MFR">
<wire x1="5.08" y1="20.32" x2="25.4" y2="20.32" width="0.254" layer="94"/>
<wire x1="25.4" y1="-22.86" x2="25.4" y2="20.32" width="0.254" layer="94"/>
<wire x1="25.4" y1="-22.86" x2="5.08" y2="-22.86" width="0.254" layer="94"/>
<wire x1="5.08" y1="20.32" x2="5.08" y2="-22.86" width="0.254" layer="94"/>
<text x="26.67" y="25.4" align="center-left" size="1.778" layer="95">&gt;NAME</text>
<text x="26.67" y="22.86" align="center-left" size="1.778" layer="96">&gt;VALUE</text>
<pin name="PA2" x="0" y="0" length="middle" direction="io" rot="R0"/>
<pin name="PA3" x="0" y="-2.54" length="middle" direction="io" rot="R0"/>
<pin name="GND" x="0" y="-5.08" length="middle" direction="io" rot="R0"/>
<pin name="VDD" x="0" y="-7.62" length="middle" direction="io" rot="R0"/>
<pin name="PA4" x="0" y="-10.16" length="middle" direction="io" rot="R0"/>
<pin name="PA5" x="0" y="-12.7" length="middle" direction="io" rot="R0"/>
<pin name="PA6" x="7.62" y="-27.94" length="middle" direction="io" rot="R90"/>
<pin name="PA7" x="10.16" y="-27.94" length="middle" direction="io" rot="R90"/>
<pin name="PB7" x="12.7" y="-27.94" length="middle" direction="io" rot="R90"/>
<pin name="PB6" x="15.24" y="-27.94" length="middle" direction="io" rot="R90"/>
<pin name="PB5" x="17.78" y="-27.94" length="middle" direction="io" rot="R90"/>
<pin name="PB4" x="20.32" y="-27.94" length="middle" direction="io" rot="R90"/>
<pin name="PC1" x="30.48" y="0" length="middle" direction="io" rot="R180"/>
<pin name="PC0" x="30.48" y="-2.54" length="middle" direction="io" rot="R180"/>
<pin name="PB0" x="30.48" y="-5.08" length="middle" direction="io" rot="R180"/>
<pin name="PB1" x="30.48" y="-7.62" length="middle" direction="io" rot="R180"/>
<pin name="PB2" x="30.48" y="-10.16" length="middle" direction="io" rot="R180"/>
<pin name="PB3" x="30.48" y="-12.7" length="middle" direction="io" rot="R180"/>
<pin name="THERMAL_PAD" x="7.62" y="25.4" length="middle" direction="io" rot="R270"/>
<pin name="PA1" x="10.16" y="25.4" length="middle" direction="io" rot="R270"/>
<pin name="PA0" x="12.7" y="25.4" length="middle" direction="io" rot="R270"/>
<pin name="PC5" x="15.24" y="25.4" length="middle" direction="io" rot="R270"/>
<pin name="PC4" x="17.78" y="25.4" length="middle" direction="io" rot="R270"/>
<pin name="PC3" x="20.32" y="25.4" length="middle" direction="io" rot="R270"/>
<pin name="PC2" x="22.86" y="25.4" length="middle" direction="io" rot="R270"/>
</symbol>
</symbols>
<devicesets>
<deviceset name="ATTINY817-MFR" prefix="IC">
<description>&lt;b&gt;8-bit Microcontrollers - MCU AVR 8-bit Microcontroller&lt;/b&gt;&lt;p&gt;
Source: &lt;a href="http://www.mouser.com/ds/2/268/Atmel-42721-AVR-ATtiny417-814-816-817_Complete-1025976.pdf"&gt; Datasheet &lt;/a&gt;</description>
<gates>
<gate name="G$1" symbol="ATTINY817-MFR" x="0" y="0"/>
</gates>
<devices>
<device name="" package="QFN50P400X400X90-25N">
<connects>
<connect gate="G$1" pin="PA2" pad="1"/>
<connect gate="G$1" pin="PA3" pad="2"/>
<connect gate="G$1" pin="GND" pad="3"/>
<connect gate="G$1" pin="VDD" pad="4"/>
<connect gate="G$1" pin="PA4" pad="5"/>
<connect gate="G$1" pin="PA5" pad="6"/>
<connect gate="G$1" pin="PA6" pad="7"/>
<connect gate="G$1" pin="PA7" pad="8"/>
<connect gate="G$1" pin="PB7" pad="9"/>
<connect gate="G$1" pin="PB6" pad="10"/>
<connect gate="G$1" pin="PB5" pad="11"/>
<connect gate="G$1" pin="PB4" pad="12"/>
<connect gate="G$1" pin="PB3" pad="13"/>
<connect gate="G$1" pin="PB2" pad="14"/>
<connect gate="G$1" pin="PB1" pad="15"/>
<connect gate="G$1" pin="PB0" pad="16"/>
<connect gate="G$1" pin="PC0" pad="17"/>
<connect gate="G$1" pin="PC1" pad="18"/>
<connect gate="G$1" pin="PC2" pad="19"/>
<connect gate="G$1" pin="PC3" pad="20"/>
<connect gate="G$1" pin="PC4" pad="21"/>
<connect gate="G$1" pin="PC5" pad="22"/>
<connect gate="G$1" pin="PA0" pad="23"/>
<connect gate="G$1" pin="PA1" pad="24"/>
<connect gate="G$1" pin="THERMAL_PAD" pad="25"/>
</connects>
<technologies>
<technology name="">
<attribute name="Manufacturer_Name" value="Microchip" constant="no"/>
<attribute name="Manufacturer_Part_Number" value="ATTINY817-MFR" constant="no"/>
<attribute name="RS_Part_Number" value="1682807P" constant="no"/>
<attribute name="RS_Price-Stock" value="http://uk.rs-online.com/web/p/products/1682807P" constant="no"/>
<attribute name="Mouser_Part_Number" value="579-ATTINY817-MFR" constant="no"/>
<attribute name="Mouser_Price-Stock" value="https://www.mouser.com/Search/Refine.aspx?Keyword=579-ATTINY817-MFR" constant="no"/>
<attribute name="Description" value="8-bit Microcontrollers - MCU AVR 8-bit Microcontroller" constant="no"/>
<attribute name="Height" value="0.9mm" constant="no"/>
</technology>
</technologies>
</device>
</devices>
</deviceset>
</devicesets>
</library>
</drawing>
</eagle>
